{"review_id": 575, "product_category": "music", "review_sentiment": "pos", "review_text": "the cd came as promised and in the condition promised . i 'm very satisfied"}
{"review_id": 737, "product_category": "music", "review_sentiment": "pos", "review_text": "sometimes i like to look up and see what i can find on some of my favorite bands from the 70 's and starz being one of them . i was lucky enough to see the band play a few times around 77 and 78. another band that took time for their fans ! ! ! ! ! ! ! i read through the many reviews of posted here on amazon and not sure if there is much that i can add , also great to see that there were so many out there that enjoyed the band and their music . i would recommend reading about each of the starz cd 's and listening to the sound files if available and deciding for yourself....... . i remember i liked this cd so much and the logo as well , i even hand - made a stencil and made my own starz shirt , i think i used some of that gold \" glue on glitter \" in a tube and had one of the first starz shirts , before the band even had any if i remember right . lots of good songs on this cd , pull the plug being one of my favorites both on the lp / cd and live . all good rock songs from a band that deserved a lot more........ . i could go on trying to describe the music......... . too bad there are no sound files for this cd...... . so you may just have to order it and take a chance . the remaining members have played a few shows during the past year or so and guitar player richie ranno continues to be active in the music business , you may even want to go over to starzcentral to get updated and see what richie and the band are up to . singer michael lee smith also had a brother that had his own band and later ventured into hollywood...... . but this is about starz ! ! ! ...so... . i highly recommend checking out the cd 's and starzcentral . not to be confused with the movie channel or another band from europe that is using the name recently"}
{"review_id": 631, "product_category": "music", "review_sentiment": "pos", "review_text": "& quot ; modern&quot ; usually sounds like some outdated mid-80s new wave album by the cars , flock of seagulls , or somesuch . it is not a punk record , mostly midtempo pop . the three songs diggle wrote and sings on are basically awful ; shelley 's are considerably better - the usual wry lyrics and great hooks . i would say about 3 or 4 of the tunes are topnotch buzzcocks stuff ; newbies should buy & quot ; operator 's manual&quot ; or & quot ; going steady . &quot ; or dig up the amazing & quot ; different kind of tension&quot ; from a used record store somewhere ! also , see them live if you have a chance"}
{"review_id": 505, "product_category": "music", "review_sentiment": "pos", "review_text": "not only do you get some great music with this cd , you get the beginnings of climax as well . ( the last 2 cuts are essentially sonny geraci solo songs done by 1 / 2 of the band that would play on climax records ) includes their 4 hits ( time wont let me , girl in love , respectable & help me girl ) and a slew of other very like-minded material . if you like any of their 4 hits , you will love the rest . if you like climax , you should buy this for the 2 last songs which are essentially climax tunes"}
{"review_id": 23, "product_category": "music", "review_sentiment": "neg", "review_text": "many albums , including this one , have the problem that all the songs pretty much sound the same ; but this also has the troublesome problem of music that is too easy on the ears and that never gets very exciting - except for the first two tracks . the use of many poetry elements in their lyrics ca n't save the blandness of the music . \" what about everything \" and \" life less ordinary \" are good songs . the rest pretty much sound the same and will put you to sleep ."}
{"review_id": 791, "product_category": "music", "review_sentiment": "pos", "review_text": "this is a wondrful cd and quite a bargin . two discs and the very best of nancy wilson . i liked so much , i bought two and gave one to a friend"}
{"review_id": 220, "product_category": "music", "review_sentiment": "neg", "review_text": "i liked the santana - steven tyler song / video . since i found out about the sneaky root kit this software installs and the idea of no free use of something i buy within reasonable means - i wont buy the cd . want to make sure that sony loses money in this effort - will teach them a lesson . i have been burned by sony 's proprietary [...] before on other items , so i will stay away ."}
{"review_id": 616, "product_category": "music", "review_sentiment": "neg", "review_text": "this is a saccharine and banal take on irish music , with all the emotional intesity of a hummel figuraine . upon first listen , i remarked to my wife that they sounded more like peter , paul , and mary than the dubliners . she correctly pointed out that peter , paul , and mary were actually much better than this pablum , and that the irish rovers more closely resemble the fictional main street singers from a mighty wind . truly , absolutely , unlistenably passionless , cloying and bland"}
{"review_id": 401, "product_category": "music", "review_sentiment": "pos", "review_text": "boo-wop ? haha ok , anyways i bought his through middle-piller distro . and it 's got a couple of o.k. songs on it . the problem is the singing and the overall production . this is definetely a home-recording on computer deal . the vocals are waaaaay weak . what exactly is a \" re-worked \" debut album ? ? ? i thought once an album was out it was done , set in stone ? apparently not , so mister monster gets to pull a blitzkid ( who changed their first album cover years after it came out ! ) and take the cheezy way out . a definete step up from bands like blitzkid , but still in the cellar of rock n roll . do yourself a favor and buy some good old deathrock from the golden years"}
{"review_id": 425, "product_category": "music", "review_sentiment": "pos", "review_text": "like louis jordan , his less well-known contemporary jump / jive artist , cab calloway fits into an area much beloved by americans who recall the boggie woogie era or simply love the jumpin bumpin scufflin shufflin sound of that pre-rock and roll music . though in truth i do love jordan more and think he was a truely protean genius who was the grandfather of r&amp ; b , calloway was the consumate showwman whose jive / jump music ca n't help but bring a smile to your lips and a lift to your heart"}
{"review_id": 666, "product_category": "music", "review_sentiment": "neg", "review_text": "if you do n't have the blues , this record will give them to you.musically speaking , it 's tripe"}
{"review_id": 617, "product_category": "music", "review_sentiment": "neg", "review_text": "this album is dull and without any emotion.the only reason this guy is even known is because of his backgroud"}
{"review_id": 793, "product_category": "music", "review_sentiment": "neg", "review_text": "i bought guerolito after hearing \" heaven hammer , \" the remixed version of guero 's \" missing . \" that remix , by air , is the sort of product that makes remixes valid - it takes the passion and yearning lost in the original production of \" missing \" and makes it feel at home in a louder , more tempting sonic landscape . that song became astonishing where the guero song was simply alright , and the new song , \" clap hands , \" is at least a good time . however , it 's hard to swallow the cobbled remixes on the rest of guerolito - the beat and the original of , say , \" earthquake weather , \" ( here as \" terromoto tempo \" ) are both individually appealing enough , but together sound dismayingly like they 're from different planets and belong nowhere near each other . \" e-pro \" becomes a groaning mess , the lovely \" farewell ride \" an electronic nightmare , and both those descrptions would be apt to describe the record as a whole"}
{"review_id": 732, "product_category": "music", "review_sentiment": "pos", "review_text": "this is an amazing ep - one of boards of canada 's strongest to date . honestly , i did n't enjoy dayvan cowboy that much on campfire headphase , but since it has been recontectualized on trans canada highway , i 'm a huge fan of the song . the new tracks are more like what one would typically expect from boards of canada . warm , fuzzy , mellow , lush analogue synths and plenty of them ! for those who were n't as taken with the newer boc sound on campfire headphase , assuage your fears - this is definitely a return to the traditional sound . that 's not to say though that this is a rehash of old material . one can hear bits and pieces of geogaddi and such , but the overall feel is much closer to music has the right to children . to all boards of canada fans - buy this without hesitation . it does n't matter what you thought of campfire - this is quality . i have one question . the title , trans canada highway , seems to be a fairly obvious reference to kraftwerk 's legendary trans europe express and the album cover seems to point to kraftwerk 's autobahn album cover , but i do n't hear any explicit musical connection . is boards of canada paying a simple titular tribute to kraftwerk , or is there something else buried within ? this calls for repeated listenings"}
{"review_id": 753, "product_category": "music", "review_sentiment": "pos", "review_text": "live alive is good enough to buy in my standered's .....i really think this was recorded poorly but the songs on it are really good if you play it in your car , or on bigger speakers so you can really hear everything much better . their are many good songs included on this complination of live performence 's spanning from performences from montreux jazz festival , austin opera house , and the dallas starfest . this recordings are all from 85-through 86. jimmie vaughan appears on willie the wimp , love struck baby , look at little sister , and change it playing guitar , and string bass . i think the worst song on the entire complination is voodoo chile ( slight return ) which is kind of weird for me to say because i think that was truely the best song stevie ray played live but in this case its not . other than that i really think for what it is it 's a average live performence ."}
{"review_id": 959, "product_category": "music", "review_sentiment": "neg", "review_text": "one reviewer remarked that morten veland had & quot ; done it again . &quot ; yup , he shot himself in the foot again , just like he did on tristania 's & quot ; beyond the veil . &quot ; veland has an obvious talent in songwriting and building arrangements , and he definitely has a knack for surrounding himself with quality musicians . his problem is that rather than using his death metal growling for proper effect , where it 's appropriate , he just plasters it everywhere , and again lessens what would otherwise have been an incredible cd . with all of the talent that is present in this band , it would certainly have been better to let them come out of the background a little more . the songs where veland does that ( which are all too few ) , like & quot ; on the wane , & quot ; are easily the cd 's best moments . to the band 's credit , the songs are more varied than on botv , with some of the guitar parts sounding like more traditional heavy metal riffs ( especially at the beginning of the opening track ) . it 's definitely still melodic goth-metal , but shows some new directions for veland , which i find promising . now , if he would just cut back on the growling...say to 50% of the cd...sirenia 's next cd will be a sure winner"}
{"review_id": 476, "product_category": "music", "review_sentiment": "neg", "review_text": "in general i 'm a big fan of movie music , but to tell the truth i expected more from this one . this soundtrack is incomaparable to say lord of the rings or star wars movie music . it lacks depth and emotion and power . unlike emotionally potent melodies present in lotr soundtrack the eragon is pretty dull and uninteresting . i get the impression that the entire album is in fact a variation of a single theme called eragon . i get the feeling that entire album has only one very long and boring track . i hope they 'll make better album for the next movie of the inheritence trilogy ."}
{"review_id": 565, "product_category": "music", "review_sentiment": "pos", "review_text": "buy this cd now if you do n't have it , it is an instant classic . the beats are banging , and fit cougnut and c-fresh 's lyrics perfectly . the lyrics are tight , and touch on many different things . & quot ; the last breath&quot ; is real life song about death and injustice , and decisions we all have to make in life . & quot ; protect what you hustle fo&quot ; is gangsta , about the individual struggle / hustle . & quot ; tell me something good&quot ; ( remix ) is even better than the west coast bad boyz version with master p . its about real life in the ghetto"}
{"review_id": 409, "product_category": "music", "review_sentiment": "neg", "review_text": "...when you 're gearing up for suicide . this whole album sounds like the last thoughts and comments of a person who 's going to just end it all . i found myself suffering nightmares , fatigue , misery and paranoia . my ears unclogged but i started getting headaches and a fuzzy feel in my head . this is not a good album for the stressed , because it will just make you feel worse . i find this album unlikable and mostly unenjoyable . when i first listened to it it sounded inaccessable , after listening to it more and more i started to get more \" into \" it , but i ca n't say i found it a good place to be in . it 's a somewhat interesting album , but it mostly just dragged me down , made me nervous , numb and hurt my head . people say this is great music . let them say what they want . give me some old fashioned enjoyable music that does n't make a pest of itself . kid a is just ok to me , and has n't been worth all the effort to \" get into \" . this almost seems like a sadomasochistic album to spank the listeners . i do n't know , maybe i 'm missing something , but to hear some \" weird \" music like this that has miles more heart and is alot kinder to the ears , try \" passengers \" by u2. and thom york sings like a muppet on this album . by the way i 've enjoyed radiohead 's first three albums quite a bit ( including pablo honey - - why are people always busting its chops ) ."}
{"review_id": 213, "product_category": "music", "review_sentiment": "pos", "review_text": "at first , i thought the only reason why i wanted this cd was because idina menzel was on it . but now , after listening to the whole cd , i was right , idina menzel was amazing , and all of the other cast members are incredibly talented too . i would highly recommend this because it is a very interesting story , it 's incredibly complex music ( theoretically ) , but at the same time it is very enjoyable ! ! ! ! i would give it more stars if i could.. . but i am only allowed 5... : ("}
